{
  "npmScope": "react-client",
  "affected": {
    "defaultBase": "master"
  },
  "implicitDependencies": {
    "workspace.json": "*",
    "package.json": {
      "dependencies": "*",
      "devDependencies": "*"
    },
    "tsconfig.base.json": "*",
    "tslint.json": "*",
    "nx.json": "*"
  },
  "tasksRunnerOptions": {
    "default": {
      "runner": "@nrwl/workspace/tasks-runners/default",
      "options": {
        "cacheableOperations": ["build", "lint", "test", "e2e"]
      }
    }
  },
  "projects": {
    "compare-cloud": {
      "tags": []
    },
    "compare-cloud-e2e": {
      "tags": [],
      "implicitDependencies": ["compare-cloud"]
    },
    "api": {
      "tags": []
    },
    "api-interfaces": {
      "tags": []
    },
    "shared": {
      "tags": []
    }
  }
}
